2014-02-24 08:47:07 Begin Main() 
2014-02-24 08:47:07 Log file name = \My Documents\Eurocopter\Logs\Eurocopter.log_2014_02_24__08_47.txt 
2014-02-24 08:47:07 EurocopterIniFileName:\My Documents\Eurocopter\Eurocopter.ini 
2014-02-24 08:47:08 RepertoireLogs:\My Documents\Eurocopter\Logs 
2014-02-24 08:47:08 Initialize() Base de donnees eurocopter:\My Documents\Eurocopter\DB_Eurocopter.sqlite 
2014-02-24 08:47:38 Close() Base de donnees eurocopter:\My Documents\Eurocopter\DB_Eurocopter.sqlite 
2014-02-24 08:47:38 close Log() 
