<?xml version="1.0" encoding="UTF-8"?><svg xmlns="http://www.w3.org/2000/svg" xmlns:xlink="http://www.w3.org/1999/xlink" fill-opacity="1" color-rendering="auto" color-interpolation="auto" stroke="black" text-rendering="auto" stroke-linecap="square" width="895" stroke-miterlimit="10" stroke-opacity="1" shape-rendering="auto" fill="black" stroke-dasharray="none" font-weight="normal" stroke-width="1" height="686" font-family="'Dialog'" font-style="normal" stroke-linejoin="miter" font-size="12" stroke-dashoffset="0" image-rendering="auto">
  <!--Generated by ySVG-->
  <defs id="genericDefs"/>
  <g>
    <g fill="white" transform="translate(326,769)" stroke="white">
      <rect x="-326" width="895" height="686" y="-769" clip-path="url(#clipPath2)" stroke="none"/>
    </g>
    <g fill="rgb(255,153,0)" transform="matrix(1,0,0,1,326,769)" stroke="rgb(255,153,0)">
      <path d="M304.5 -379.286 L536.5 -379.286 L536.5 -262.0721 Q536.5 -259.0721 533.5 -259.0721 L307.5 -259.0721 Q304.5 -259.0721 304.5 -262.0721 Z" clip-path="url(#clipPath2)" stroke="none"/>
      <path fill="url(#linearGradient1)" d="M304.5 -494.5 Q304.5 -497.5 307.5 -497.5 L533.5 -497.5 Q536.5 -497.5 536.5 -494.5 L536.5 -378.2861 L304.5 -378.2861 Z" clip-path="url(#clipPath2)" stroke="none"/>
      <path fill="none" stroke-width="2" d="M306.5 -494.5 Q306.5 -495.5 307.5 -495.5 L533.5 -495.5 Q534.5 -495.5 534.5 -494.5 L534.5 -262.0721 Q534.5 -261.0721 533.5 -261.0721 L307.5 -261.0721 Q306.5 -261.0721 306.5 -262.0721 Z" clip-path="url(#clipPath2)" stroke="rgb(255,240,217)"/>
      <path fill="none" d="M306.5 -494.5 Q306.5 -495.5 307.5 -495.5 L533.5 -495.5 Q534.5 -495.5 534.5 -494.5 L534.5 -262.0721 Q534.5 -261.0721 533.5 -261.0721 L307.5 -261.0721 Q306.5 -261.0721 306.5 -262.0721 Z" clip-path="url(#clipPath2)"/>
    </g>
    <g transform="matrix(1,0,0,1,183.5,356.286)">
      <g clip-path="url(#clipPath3)">
        <svg xmlns:svg="http://www.w3.org/2000/svg" xmlns:sodipodi="http://sodipodi.sourceforge.net/DTD/sodipodi-0.dtd" xmlns:inkscape="http://www.inkscape.org/namespaces/inkscape" xmlns:dc="http://purl.org/dc/elements/1.1/" xmlns:cc="http://web.resource.org/cc/" xmlns:rdf="http://www.w3.org/1999/02/22-rdf-syntax-ns#" opacity="1" margin-top="0" indent="0" writing-mode="lr-tb" stop-color="rgb(0, 0, 0)" shape-rendering="auto" glyph-orientation-horizontal="0deg" color-profile="auto" lighting-color="rgb(255, 255, 255)" color="rgb(0, 0, 0)" xml:id="svg1.svg2" font-weight="400" alignment-baseline="auto" font-style="normal" version="1.0" color-interpolation-filters="linearrgb" text-anchor="start" stroke-linecap="butt" color-interpolation="srgb" font-variant="normal" margin-left="0" solid-color="rgb(0, 0, 0)" word-spacing="normal" fill-opacity="1" text-rendering="auto" clip-path="none" text-decoration="none" letter-spacing="normal" glyph-orientation-vertical="auto" margin-right="0" display="inline" font-size-adjust="none" margin-bottom="0" overflow="visible" fill="rgb(0, 0, 0)" font-stretch="normal" stroke-dasharray="none" inkscape:version="0.45.1" id="svg1.svg2" stroke-miterlimit="4" stop-opacity="1" color-rendering="auto" font-size="12" sodipodi:docbase="C:\Daten\alberts\projects\yfx" pointer-events="visiblepainted" mask="none" direction="ltr" baseline-shift="baseline" sodipodi:docname="uml_actor.svg" enable-background="accumulate" fill-rule="nonzero" image-rendering="auto" solid-opacity="1" stroke-dashoffset="0" inkscape:output_extension="org.inkscape.output.svg.inkscape" marker-end="none" width="41" clip="auto" cursor="auto" stroke="none" filter="none" visibility="visible" kerning="auto" stroke-width="1" font-family="&quot;Arial&quot;,&quot;Helvetica&quot;,sans-serif" flood-opacity="1" clip-rule="nonzero" src="none" height="68.997391" text-align="inherit" line-height="normal" unicode-bidi="normal" sodipodi:version="0.32" stroke-linejoin="miter" stroke-opacity="1" flood-color="rgb(0, 0, 0)" dominant-baseline="auto" marker-start="none" marker-mid="none">
  <defs id="svg1.defs4" xml:id="svg1.defs4">
            <linearGradient x1="304.5" gradientUnits="userSpaceOnUse" x2="304.5" y1="-498.5" y2="-257.5721" id="linearGradient1" spreadMethod="pad">
              <stop stop-opacity="1" stop-color="rgb(255,230,191)" offset="0%"/>
              <stop stop-opacity="1" stop-color="rgb(255,173,51)" offset="100%"/>
            </linearGradient>
            <linearGradient x1="304.5" gradientUnits="userSpaceOnUse" x2="304.5" y1="-168.3558" y2="-97" id="linearGradient2" spreadMethod="pad">
              <stop stop-opacity="1" stop-color="rgb(255,230,191)" offset="0%"/>
              <stop stop-opacity="1" stop-color="rgb(255,173,51)" offset="100%"/>
            </linearGradient>
            <clipPath clipPathUnits="userSpaceOnUse" id="clipPath1">
              <path d="M0 0 L895 0 L895 686 L0 686 L0 0 Z"/>
            </clipPath>
            <clipPath clipPathUnits="userSpaceOnUse" id="clipPath2">
              <path d="M-326 -769 L569 -769 L569 -83 L-326 -83 L-326 -769 Z"/>
            </clipPath>
            <clipPath clipPathUnits="userSpaceOnUse" id="clipPath3">
              <path d="M-183.5 -356.286 L711.5 -356.286 L711.5 329.714 L-183.5 329.714 L-183.5 -356.286 Z"/>
            </clipPath>
          </defs>
  
  <metadata id="svg1.metadata7" xml:id="svg1.metadata7">
    
  </metadata>
  <g inkscape:groupmode="layer" id="svg1.layer1" xml:id="svg1.layer1" transform="translate(-29.5,-42.959476)" inkscape:label="Ebene 1">
    <a xml:id="svg1.a3142" id="svg1.a3142" transform="matrix(1.0873906,0,0,1,-4.4741999,0)">
      <path transform="translate(11.586889,5.2908993)" style="fill:none;fill-rule:evenodd;stroke:#000000;stroke-width:1px;stroke-linecap:butt;stroke-linejoin:miter;stroke-opacity:1" sodipodi:cx="38.509369" sodipodi:cy="47.36993" sodipodi:rx="8.5197716" id="svg1.path2160" d="M 47.02914 47.36993 A 8.5197716 9.2013531 0 1 1  29.989597,47.36993 A 8.5197716 9.2013531 0 1 1  47.02914 47.36993 z" sodipodi:ry="9.2013531" xml:id="svg1.path2160" sodipodi:type="arc"/>
    </a>
    <path style="fill:none" sodipodi:cx="43.962021" sodipodi:cy="48.392303" d="M 47.71072 48.392303 A 3.7486994 0 0 1 1  40.213321,48.392303 A 3.7486994 0 0 1 1  47.71072 48.392303 z" sodipodi:rx="3.7486994" id="svg1.path3134" sodipodi:ry="0" xml:id="svg1.path3134" sodipodi:type="arc"/>
    <path d="M 50,61.33709 C 50,91.363211 50,92.247838 50,92.247838" id="svg1.path3136" style="fill:none;fill-rule:evenodd;stroke:#000000;stroke-width:1.24319649px;stroke-linecap:butt;stroke-linejoin:miter;stroke-opacity:1" xml:id="svg1.path3136"/>
    <path d="M 69.760668,72.362183 C 69.760668,72.362183 69.760668,72.362183 50.239332,72.362183 C 30.239332,72.362183 30.239332,72.362183 30.239332,72.362183 L 30.239332,72.362183" id="svg1.path3138" style="fill:none;fill-rule:evenodd;stroke:#000000;stroke-width:1px;stroke-linecap:butt;stroke-linejoin:miter;stroke-opacity:1" xml:id="svg1.path3138"/>
    <path d="M 30,111.45687 C 30,111.45687 30,111.45687 50,92.013532 C 70,111.45687 70,111.45687 70,111.45687" id="svg1.path3140" style="fill:none;fill-rule:evenodd;stroke:#000000;stroke-width:1px;stroke-linecap:butt;stroke-linejoin:miter;stroke-opacity:1" xml:id="svg1.path3140"/>
  </g>
</svg>
      </g>
    </g>
    <g font-size="13" stroke-miterlimit="1.45" font-family="sans-serif" transform="matrix(1,0,0,1,326,769)" stroke-linecap="butt">
      <text x="-308.7793" xml:space="preserve" y="-373.1794" clip-path="url(#clipPath2)" stroke="none">Responsable taggage RFID</text>
    </g>
    <g fill="rgb(255,204,153)" transform="matrix(1,0,0,1,326,769)" stroke="rgb(255,204,153)">
      <ellipse rx="146.8542" ry="23.125" clip-path="url(#clipPath2)" cx="406.7708" cy="-644.75" stroke="none"/>
    </g>
    <g font-size="13" stroke-miterlimit="1.45" font-family="sans-serif" transform="matrix(1,0,0,1,326,769)" stroke-linecap="butt">
      <text x="279.951" xml:space="preserve" y="-639.6433" clip-path="url(#clipPath2)" stroke="none">Choisir le produit au moyen de la combobox</text>
    </g>
    <g fill="rgb(204,153,255)" stroke-miterlimit="1.45" transform="matrix(1,0,0,1,326,769)" stroke-linecap="butt" stroke="rgb(204,153,255)">
      <ellipse rx="146.8542" fill="none" ry="23.125" clip-path="url(#clipPath2)" cx="406.7708" cy="-644.75"/>
    </g>
    <g fill="rgb(255,204,153)" transform="matrix(1,0,0,1,326,769)" stroke="rgb(255,204,153)">
      <ellipse rx="60.5417" ry="20" clip-path="url(#clipPath2)" cx="414.5417" cy="-335" stroke="none"/>
    </g>
    <g font-size="13" stroke-miterlimit="1.45" font-family="sans-serif" transform="matrix(1,0,0,1,326,769)" stroke-linecap="butt">
      <text x="376.2399" xml:space="preserve" y="-329.8933" clip-path="url(#clipPath2)" stroke="none">Tagger le pot</text>
    </g>
    <g fill="rgb(204,153,255)" stroke-miterlimit="1.45" transform="matrix(1,0,0,1,326,769)" stroke-linecap="butt" stroke="rgb(204,153,255)">
      <ellipse rx="60.5417" fill="none" ry="20" clip-path="url(#clipPath2)" cx="414.5417" cy="-335"/>
    </g>
    <g fill="rgb(255,204,153)" transform="matrix(1,0,0,1,326,769)" stroke="rgb(255,204,153)">
      <ellipse rx="66.5" ry="20" clip-path="url(#clipPath2)" cx="420.5" cy="-430.625" stroke="none"/>
    </g>
    <g font-size="13" stroke-miterlimit="1.45" font-family="sans-serif" transform="matrix(1,0,0,1,326,769)" stroke-linecap="butt">
      <text x="377.4978" xml:space="preserve" y="-425.5183" clip-path="url(#clipPath2)" stroke="none">Prendre un pot</text>
    </g>
    <g fill="rgb(204,153,255)" stroke-miterlimit="1.45" transform="matrix(1,0,0,1,326,769)" stroke-linecap="butt" stroke="rgb(204,153,255)">
      <ellipse rx="66.5" fill="none" ry="20" clip-path="url(#clipPath2)" cx="420.5" cy="-430.625"/>
    </g>
    <g fill="rgb(153,204,255)" transform="matrix(1,0,0,1,326,769)" stroke="rgb(153,204,255)">
      <rect x="90.625" y="-754" clip-path="url(#clipPath2)" width="400" rx="4" ry="4" height="40" stroke="none"/>
    </g>
    <g font-size="18" stroke-miterlimit="1.45" font-family="sans-serif" transform="matrix(1,0,0,1,326,769)" stroke-linecap="butt">
      <text x="145.0562" xml:space="preserve" y="-726.9292" clip-path="url(#clipPath2)" stroke="none">Tagger les pots à livrer à Eurocopter</text>
    </g>
    <g fill="rgb(255,153,0)" transform="matrix(1,0,0,1,326,769)" stroke="rgb(255,153,0)">
      <path d="M304.5 -133.9279 L508.5 -133.9279 L508.5 -108.5 Q508.5 -98.5 498.5 -98.5 L314.5 -98.5 Q304.5 -98.5 304.5 -108.5 Z" clip-path="url(#clipPath2)" stroke="none"/>
      <path fill="url(#linearGradient2)" d="M304.5 -157.3558 Q304.5 -167.3558 314.5 -167.3558 L498.5 -167.3558 Q508.5 -167.3558 508.5 -157.3558 L508.5 -132.9279 L304.5 -132.9279 Z" clip-path="url(#clipPath2)" stroke="none"/>
      <path fill="none" stroke-width="2" d="M306.5 -157.3558 Q306.5 -165.3558 314.5 -165.3558 L498.5 -165.3558 Q506.5 -165.3558 506.5 -157.3558 L506.5 -108.5 Q506.5 -100.5 498.5 -100.5 L314.5 -100.5 Q306.5 -100.5 306.5 -108.5 Z" clip-path="url(#clipPath2)" stroke="rgb(255,240,217)"/>
      <path fill="none" d="M306.5 -157.3558 Q306.5 -165.3558 314.5 -165.3558 L498.5 -165.3558 Q506.5 -165.3558 506.5 -157.3558 L506.5 -108.5 Q506.5 -100.5 498.5 -100.5 L314.5 -100.5 Q306.5 -100.5 306.5 -108.5 Z" clip-path="url(#clipPath2)"/>
    </g>
    <g stroke-miterlimit="1.45" font-family="sans-serif" transform="matrix(1,0,0,1,326,769)" stroke-linecap="butt">
      <text x="364.8223" xml:space="preserve" y="-128.214" clip-path="url(#clipPath2)" stroke="none">Finir la livraison</text>
    </g>
    <g stroke-linecap="butt" transform="matrix(1,0,0,1,326,769)" stroke-miterlimit="1.45">
      <path fill="none" d="M493.7952 -497.4794 L492.8365 -499.252 L488.5555 -505.6189 L483.6947 -511.5379 L478.2921 -516.9668 L472.3857 -521.8636 L466.0136 -526.1863 L459.2139 -529.8927 L452.0247 -532.9407 L444.4839 -535.2883 L436.6296 -536.8934 L428.5 -537.714 L420.3291 -537.7114 L412.3536 -536.9006 L404.6157 -535.3196 L397.1574 -533.0067 L390.0208 -529.9996 L383.248 -526.3365 L376.8811 -522.0555 L370.9622 -517.1947 L365.5332 -511.7921 L360.6364 -505.8857 L359.5355 -504.2628 L359.4876 -504.175" clip-path="url(#clipPath2)"/>
      <path d="M355.1741 -497.4375 L365.8553 -504.8478 L360.0268 -505.0172 L357.4334 -510.2397 Z" clip-path="url(#clipPath2)" stroke="none"/>
      <text x="417.8228" xml:space="preserve" y="-519.3167" font-family="sans-serif" clip-path="url(#clipPath2)" stroke="none">n pots à tagger</text>
      <path fill="none" d="M-101.6364 -378.286 L296.5299 -378.286" clip-path="url(#clipPath2)"/>
      <path d="M304.5299 -378.286 L292.5299 -383.286 L295.5299 -378.286 L292.5299 -373.286 Z" clip-path="url(#clipPath2)" stroke="none"/>
      <text x="60.0689" xml:space="preserve" y="-373.5722" font-family="sans-serif" clip-path="url(#clipPath2)" stroke="none">Tagger les pots</text>
      <path fill="none" d="M-101.6354 -388.5484 L355.8261 -619.0774" clip-path="url(#clipPath2)"/>
      <path d="M362.9702 -622.6776 L350.0039 -621.7424 L354.9331 -618.6274 L354.5041 -612.8122 Z" clip-path="url(#clipPath2)" stroke="none"/>
      <path fill="none" d="M415.7876 -354.9958 L418.7565 -402.644" clip-path="url(#clipPath2)"/>
      <path d="M419.254 -410.6285 L413.5175 -398.9627 L418.6943 -401.6459 L423.4981 -398.3408 Z" clip-path="url(#clipPath2)" stroke="none"/>
      <path fill="none" d="M419.254 -410.6285 L416.2851 -362.9803" clip-path="url(#clipPath2)"/>
      <path d="M415.7876 -354.9958 L421.5242 -366.6616 L416.3473 -363.9783 L411.5435 -367.2835 Z" clip-path="url(#clipPath2)" stroke="none"/>
      <path fill="none" d="M-101.6458 -368.8365 L325.0876 -170.7239" clip-path="url(#clipPath2)"/>
      <path d="M332.3437 -167.3552 L323.5649 -176.9434 L324.1805 -171.145 L319.354 -167.8732 Z" clip-path="url(#clipPath2)" stroke="none"/>
    </g>
  </g>
</svg>
