2014-02-21 15:09:15 Begin Main() 
2014-02-21 15:09:15 Log file name = \My Documents\Eurocopter\Logs\Eurocopter.log_2014_02_21__15_09.txt 
2014-02-21 15:09:15 EurocopterIniFileName:\My Documents\Eurocopter\Eurocopter.ini 
2014-02-21 15:09:15 RepertoireLogs:\My Documents\Eurocopter\Logs 
2014-02-21 15:11:13 Database NbOuverturesBac=2 
2014-02-21 15:11:13 DB_Eurocopter.Database.Insert Ouverture bac=>OK 
2014-02-21 15:11:13 COuvertureBac=...
bac_melange_id:11
date_ouverture:2014-02-21 15:11:13
id:26
numero_ouverture:2
ordre_fabrication:300
 
2014-02-21 15:11:13 DB_Eurocopter.Database.Insert Ouverture bac=>OK 
2014-02-21 15:11:13 COuvertureBac=...
bac_melange_id:11
date_ouverture:2014-02-21 15:11:13
id:27
numero_ouverture:2
ordre_fabrication:301
 
2014-02-21 15:11:13 DB_Eurocopter.Database.Insert Ouverture bac=>OK 
2014-02-21 15:11:13 COuvertureBac=...
bac_melange_id:11
date_ouverture:2014-02-21 15:11:13
id:28
numero_ouverture:2
ordre_fabrication:302
 
2014-02-21 15:11:13 DB_Eurocopter.Database.Insert Ouverture bac=>OK 
2014-02-21 15:11:13 COuvertureBac=...
bac_melange_id:11
date_ouverture:2014-02-21 15:11:13
id:29
numero_ouverture:2
ordre_fabrication:303
 
2014-02-21 15:11:13 CheckMinLength() La chaine MatriculeOperateur:40861577 => :40861577.. 
2014-02-21 15:11:15 EcrireTagBartec delta_dates_ouvertures=...
Ouverture 0:1
Ouverture 1:9
Ouverture 2:6
Ouverture 3:0
Ouverture 4:0
Ouverture 5:0
Ouverture 6:0
Ouverture 7:0
Ouverture 8:0
Ouverture 9:0
 
2014-02-21 15:11:50 close Log() 
